{
  "timesdefutebol": {
    "futebol": [
      {
        "nome": "Time Branco x Vermelho",
        "descricao": " 
   O time de branco contra o de azul
  ",
        "estadio": "Maracana"
      },
      {
        "nome": "Time Amarelo x Azul",
        "descricao": " 
   O time de azul contra o de amarelo 
  ",
        "estadio": "Morumbi"
      },
      {
        "nome": "Time preto x time cinza",
        "descricao": " 
   Time cinza con tra time preto 
  ",
        "estadio": "Itaquerao"
      }
    ]
  }
}